<?xml version="1.0" encoding="utf-8"?>
<svg viewBox="184.509 103.475 53.945 49.39" xmlns="http://www.w3.org/2000/svg">
  <text style="fill: rgba(190, 0, 0, 0.83); font-family: &quot;Microsoft Yi Baiti&quot;; font-size: 33px; white-space: pre;" x="194.558" y="127.957">RJ</text>
  <text style="fill: rgba(255, 255, 255, 0.7); font-family: &quot;Microsoft Yi Baiti&quot;; font-size: 16.9px; white-space: pre;" x="195.938" y="138.896">story</text>
</svg>